@startuml

title __CE4A2's Class Diagram__\n

  namespace com.psybergate.grade2021.core.ooppart1.ce4a2 {
    abstract class com.psybergate.grade2021.core.ooppart1.ce4a2.Account {
        - SurName : String
        - accountNum : int
        - balance : int
        - interestRate : double
        - name : String
        - overDraft : int
        + Account()
        + Account()
        {abstract} + getAccountType()
        + getBalance()
        + getOverDraft()
        {abstract} + isOverDrawn()
        {abstract} + needsToBeReviewed()
    }
  }
  

  namespace com.psybergate.grade2021.core.ooppart1.ce4a2 {
    class com.psybergate.grade2021.core.ooppart1.ce4a2.CurrentAccount {
        {static} + MAX_OVERDRAFT : int
        {static} + OVERDRAFT_AMOUNT_LIMIT : double
        {static} + OVERDRAFT_PERCENT_LIMIT : double
        - interestRate : double
        + CurrentAccount()
        + getAccountType()
        + isOverDrawn()
        + needsToBeReviewed()
    }
  }
  

  namespace com.psybergate.grade2021.core.ooppart1.ce4a2 {
    class com.psybergate.grade2021.core.ooppart1.ce4a2.SavingsAccount {
        {static} + ACCOUNT_NEEDS_REVIEWED_AMOUNT : int
        {static} + OVERDRAWN_AMOUNT : int
        + SavingsAccount()
        + getAccountType()
        + isOverDrawn()
        + needsToBeReviewed()
    }
  }
  

  namespace com.psybergate.grade2021.core.ooppart1.ce4a2 {
    class com.psybergate.grade2021.core.ooppart1.ce4a2.Util {
        {static} + main()
    }
  }
  

  com.psybergate.grade2021.core.ooppart1.ce4a2.CurrentAccount -up-|> com.psybergate.grade2021.core.ooppart1.ce4a2.Account
  com.psybergate.grade2021.core.ooppart1.ce4a2.SavingsAccount -up-|> com.psybergate.grade2021.core.ooppart1.ce4a2.Account


right footer


PlantUML diagram generated by SketchIt! (https://bitbucket.org/pmesmeur/sketch.it)
For more information about this tool, please contact philippe.mesmeur@gmail.com
endfooter

@enduml
