@startuml

title __INTERFACE's Class Diagram__\n

  namespace com.psybergate.grade2021.core.ooppart1.Interface {
    interface com.psybergate.grade2021.core.ooppart1.Interface.Animal {
        {abstract} + speak()
    }
  }
  

  namespace com.psybergate.grade2021.core.ooppart1.Interface {
    class com.psybergate.grade2021.core.ooppart1.Interface.Dog {
        + speak()
    }
  }
  

  namespace com.psybergate.grade2021.core.ooppart1.Interface {
    class com.psybergate.grade2021.core.ooppart1.Interface.InterfaceTest {
        {static} + main()
    }
  }
  

  com.psybergate.grade2021.core.ooppart1.Interface.Dog .up.|> com.psybergate.grade2021.core.ooppart1.Interface.Animal


right footer


PlantUML diagram generated by SketchIt! (https://bitbucket.org/pmesmeur/sketch.it)
For more information about this tool, please contact philippe.mesmeur@gmail.com
endfooter

@enduml
