@startuml

title __CE3A's Class Diagram__\n

  namespace com.psybergate.grade2021.core.ooppart1.ce3a {
    abstract class com.psybergate.grade2021.core.ooppart1.ce3a.Account {
        - SurName : String
        - accountNum : int
        - balance : int
        - name : String
        - overDraft : int
        + Account()
        + getAccountType()
        + getBalance()
        + getOverDraft()
        {abstract} + needsToBeReviewed()
    }
  }
  

  namespace com.psybergate.grade2021.core.ooppart1.ce3a {
    class com.psybergate.grade2021.core.ooppart1.ce3a.CurrentAccount {
        {static} + MAX_OVERDRAFT : int
        {static} + OVERDRAFT_AMOUNT_LIMIT : double
        {static} + OVERDRAFT_PERCENT_LIMIT : double
        + overDraft : int
        - interestRate : double
        + CurrentAccount()
        + getInterestRate()
        + isOverDrawn()
        + needsToBeReviewed()
        + setInterestRate()
    }
  }
  

  namespace com.psybergate.grade2021.core.ooppart1.ce3a {
    class com.psybergate.grade2021.core.ooppart1.ce3a.Util {
        {static} + main()
    }
  }
  

  com.psybergate.grade2021.core.ooppart1.ce3a.CurrentAccount -up-|> com.psybergate.grade2021.core.ooppart1.ce3a.Account


right footer


PlantUML diagram generated by SketchIt! (https://bitbucket.org/pmesmeur/sketch.it)
For more information about this tool, please contact philippe.mesmeur@gmail.com
endfooter

@enduml
