@startuml

title __HW5A's Class Diagram__\n

  namespace com.psybergate.grade2021.core.ooppart1.hw5a {
    class com.psybergate.grade2021.core.ooppart1.hw5a.Account {
        - accountNum : int
        - balance : int
        + Account()
        + deposit()
        + getAccountNum()
        + getBalance()
        + withdraw()
    }
  }
  

  namespace com.psybergate.grade2021.core.ooppart1.hw5a {
    class com.psybergate.grade2021.core.ooppart1.hw5a.CurrentAccount {
        - minBalance : int
        + CurrentAccount()
    }
  }
  

  namespace com.psybergate.grade2021.core.ooppart1.hw5a {
    class com.psybergate.grade2021.core.ooppart1.hw5a.Customer {
        - accounts : List<Account>
        - customerNum : int
        - name : String
        - surname : String
        + Customer()
        + addAccount()
        + getAccounts()
        + getCustomerNum()
    }
  }
  

  namespace com.psybergate.grade2021.core.ooppart1.hw5a {
    class com.psybergate.grade2021.core.ooppart1.hw5a.CustomerUtils {
        + printBalances()
    }
  }
  

  namespace com.psybergate.grade2021.core.ooppart1.hw5a {
    class com.psybergate.grade2021.core.ooppart1.hw5a.SavingAccount {
        - overdraft : int
        + SavingAccount()
    }
  }
  

  namespace com.psybergate.grade2021.core.ooppart1.hw5a {
    class com.psybergate.grade2021.core.ooppart1.hw5a.Util {
        {static} + main()
    }
  }
  

  com.psybergate.grade2021.core.ooppart1.hw5a.CurrentAccount -up-|> com.psybergate.grade2021.core.ooppart1.hw5a.Account
  com.psybergate.grade2021.core.ooppart1.hw5a.SavingAccount -up-|> com.psybergate.grade2021.core.ooppart1.hw5a.Account


right footer


PlantUML diagram generated by SketchIt! (https://bitbucket.org/pmesmeur/sketch.it)
For more information about this tool, please contact philippe.mesmeur@gmail.com
endfooter

@enduml
