@startuml

title __PRIVATEPARENT's Class Diagram__\n

  namespace com.psybergate.grade2021.core.ooppart2.explore.privateparent {
    class com.psybergate.grade2021.core.ooppart2.explore.privateparent.Child {
    }
  }
  

  namespace com.psybergate.grade2021.core.ooppart2.explore.privateparent {
    abstract class com.psybergate.grade2021.core.ooppart2.explore.privateparent.PrivateParent {
        - sayHello()
    }
  }
  

  com.psybergate.grade2021.core.ooppart2.explore.privateparent.Child -up-|> com.psybergate.grade2021.core.ooppart2.explore.privateparent.PrivateParent


right footer


PlantUML diagram generated by SketchIt! (https://bitbucket.org/pmesmeur/sketch.it)
For more information about this tool, please contact philippe.mesmeur@gmail.com
endfooter

@enduml
