@startuml

title __HW3A's Class Diagram__\n

  namespace com.psybergate.grade2021.core.ooppart2.hw3a {
    class com.psybergate.grade2021.core.ooppart2.hw3a.Customer {
        - customerNum : int
        + Customer()
        + equals()
        {static} + main()
    }
  }
  



right footer


PlantUML diagram generated by SketchIt! (https://bitbucket.org/pmesmeur/sketch.it)
For more information about this tool, please contact philippe.mesmeur@gmail.com
endfooter

@enduml
