@startuml

title __INHERITANCE's Class Diagram__\n

  namespace com.psybergate.grade2021.core.ooppart1.inheritance {
    class com.psybergate.grade2021.core.ooppart1.inheritance.TestInheritance {
        {static} + main()
    }
  }
  

  namespace com.psybergate.grade2021.core.ooppart1.inheritance {
    class com.psybergate.grade2021.core.ooppart1.inheritance.bird {
        + swear()
    }
  }
  

  namespace com.psybergate.grade2021.core.ooppart1.inheritance {
    class com.psybergate.grade2021.core.ooppart1.inheritance.ostrich {
        + sound()
    }
  }
  

  namespace com.psybergate.grade2021.core.ooppart1.inheritance {
    class com.psybergate.grade2021.core.ooppart1.inheritance.penguin {
        + hello()
    }
  }
  

  com.psybergate.grade2021.core.ooppart1.inheritance.ostrich -up-|> com.psybergate.grade2021.core.ooppart1.inheritance.penguin
  com.psybergate.grade2021.core.ooppart1.inheritance.penguin -up-|> com.psybergate.grade2021.core.ooppart1.inheritance.bird


right footer


PlantUML diagram generated by SketchIt! (https://bitbucket.org/pmesmeur/sketch.it)
For more information about this tool, please contact philippe.mesmeur@gmail.com
endfooter

@enduml
